…
---

#### Section 3: Summarizing with dplyr   3.1 Summarizing with dplyr   Group By

A very common operation and data exploration
is to first split data into groups and then compute summaries for each group.
For example, we may want to compute the average and standard deviation for men
and women heights separately.
The group underscore by function helps us do this.
Let's look at an example.
If we take heights and we pipe it into the group
by function that is using sex to group it by, we see this table.

    > heights %>% group_by(sex)
    # A tibble: 1,050 x 2
    # Groups:   sex [2]
       sex    height
       <fct>   <dbl>
     1 Male       75
     2 Male       70
     3 Male       68
     4 Male       74
     5 Male       61
     6 Female     65
     7 Female     66
     8 Female     62
     9 Female     66
    10 Male       67
    # ... with 1,040 more rows
…
